^C:\USERS\DEATH\SOURCE\REPOS\GDSTRUC_SEATWORK\GDSTRUC_SEATWORK\SOURCE.CPP
C:\USERS\DEATH\SOURCE\REPOS\GDSTRUC_SEATWORK\GDSTRUC_SEATWORK\DEBUG\VC142.PDB
C:\USERS\DEATH\SOURCE\REPOS\GDSTRUC_SEATWORK\GDSTRUC_SEATWORK\DEBUG\VC142.IDB
C:\USERS\DEATH\SOURCE\REPOS\GDSTRUC_SEATWORK\GDSTRUC_SEATWORK\DEBUG\SOURCE.OBJ
